GEOG0018
…
You can further inspect the results using the View() function.

To access specific columns or rows in a dataframe, we can use indexing. Indexing refers to the numbering assigned to each element within a data structure, allowing us to precisely select and manipulate data.

To access the first row of a dataframe, you would use dataframe[1, ], and to access the first column, you would use dataframe[, 1]. The comma separates the row and column indices, with the absence of a number indicating all rows or columns respectively.

In R, indexing begins at 1, meaning that the first element of any data structure is accessed with the index [1]. This is different from many other programming languages, such as Python or Java, where indexing typically starts at 0.

R code

# index columns
lsoa_age[, 1]

# A tibble: 24,970 × 1
   `Lower layer Super Output Areas Code`
   <chr>                                
 1 E01000001                            
 2 E01000001                            
 3 E01000001                            
 4 E01000001                            
 5 E01000001                            
 6 E01000002                            
 7 E01000002                            
 8 E01000002                            
 9 E01000002                            
10 E01000002                            
# ℹ 24,960 more rows
…
